{
  "project_info": {
    "project_number": "855897169884",
    "firebase_url": "https://flash-chat-e9fbe.firebaseio.com",
    "project_id": "flash-chat-e9fbe",
    "storage_bucket": "flash-chat-e9fbe.appspot.com"
  },
  "client": [
    {
      "client_info": {
        "mobilesdk_app_id": "1:855897169884:android:b591fb479513705c4bf919",
        "android_client_info": {
          "package_name": "com.steveonyeneke.flash_chat"
        }
      },
      "oauth_client": [
        {
          "client_id": "855897169884-u8ndrgcck300j84scdo0jodeffrh456g.apps.googleusercontent.com",
          "client_type": 3
        }
      ],
      "api_key": [
        {
          "current_key": "AIzaSyBFoZMnaKBHRfDCzHwveG2c_0NnrRnsiRk"
        }
      ],
      "services": {
        "appinvite_service": {
          "other_platform_oauth_client": [
            {
              "client_id": "855897169884-u8ndrgcck300j84scdo0jodeffrh456g.apps.googleusercontent.com",
              "client_type": 3
            }
          ]
        }
      }
    }
  ],
  "configuration_version": "1"
}